[
  {
    "attributeId": "F0",
    "attributeName": "ANLEGG",
    "attributeValue": "10000011",
    "companyId": "72",
    "customValue": 0,
    "description": "Gruppe 1101 anlegg nr 1",
    "owner": "",
    "ownerAttributeId": "",
    "ownerAttributeName": "",
    "periodFrom": 199401,
    "periodTo": 209912,
    "status": "T",
    "lastUpdated": {
      "updatedAt": "2020-06-15T12:56:54.000",
      "updatedBy": "R.BERA"
    }
  }
]
