{
    "countryCode": "NO",
    "dimV2Type": "",
    "dimV3Type": "",
    "municipal": "OSLO",
    "taxSystem": "",
    "country": "",
    "employerId": "123456789",
    "companyId": "72",
    "companyName": "BOTT fiktivt",
    "companyRegistrationNumber": "123456789",
    "currentAccountingPeriod": 202007,
    "languageCode": "NO",
    "maximumTransactionDifference": 0.05,
    "maximumPaymentDifference": 0.05,
    "newCompanyId": "72",
    "overrun": 0.0,
    "payReference": "",
    "numberOfPeriods": 12,
    "remindReference": "",
    "systemSetupCode": "NO",
    "taxOfficeName": "",
    "taxOfficeReference": "OSLO",
    "vatRegistrationNumber": "123456789MVA",
    "multiCompanyInformation": {
        "currencyCompanyId": "72",
        "headOffice": "72",
        "legalActingCompanyId": "72",
        "remittanceCompanyId": "72"
    },
    "accounting": {
        "exchangeGainAccount": "8060",
        "exchangeLossAccount": "8160",
        "costCapitalisation": "1790",
        "incomeCapitalisationAccount": "2900",
        "reversedPaymentAccount": "",
        "undeclaredVatAccount": "",
        "amount3BalanceAccount": "",
        "amount4BalanceAccount": "",
        "balancingAttributeAccount": "",
        "invoiceFee": "7770",
        "differenceAccount": "7771",
        "paymentDifferenceGain": "7771",
        "paymentDifferenceLoss": "7771"
    },
    "currencyInformation": {
        "balanceAttribute": "",
        "currencySplit": false,
        "currencyCode": "NOK",
        "triangulationCurrency": "",
        "amount3Currency": "",
        "amount4Currency": "",
        "currencyType": "1",
        "amount3DifferenceAccount": "",
        "amount4DifferenceAccount": "",
        "amount3MaxTransactionDifference": 0.0,
        "amount4MaxTransactionDifference": 0.0
    },
    "vatInformation": {
        "undeclVatForApNotes": "",
        "undeclVatForArNotes": "",
        "undeclVatForAp": "",
        "undeclVatForAr": "",
        "reverseVatWhenDiscountAp": false,
        "reverseVatWhenDiscountAr": false
    },
    "lastUpdated": {
        "updatedAt": "2020-07-15T09:15:18.613",
        "updatedBy": "0-JOEI"
    },
    "contactPoints": [
        {
            "address": {
                "countryCode": "NO",
                "place": "OSLO",
                "postcode": "0001",
                "province": "",
                "streetAddress": "Bottveien 1"
            },
            "additionalContactInfo": {
                "contactPerson": "",
                "contactPosition": "",
                "eMail": "bott@gmail.com",
                "eMailCc": "",
                "gtin": "",
                "url": ""
            },
            "contactPointType": "1",
            "lastUpdated": {
                "updatedAt": "2019-11-06T10:47:35.760",
                "updatedBy": "R.LISE"
            },
            "phoneNumbers": {
                "telephone1": "932 00 00",
                "telephone2": "",
                "telephone3": "",
                "telephone4": "",
                "telephone5": "",
                "telephone6": "",
                "telephone7": ""
            },
            "sortOrder": 0
        },
        {
            "address": {
                "countryCode": "NO",
                "place": "OSLO",
                "postcode": "0040",
                "province": "",
                "streetAddress": "Karl Johans gate 32"
            },
            "additionalContactInfo": {
                "contactPerson": "Ørjan Leithe",
                "contactPosition": "",
                "eMail": "",
                "eMailCc": "",
                "gtin": "",
                "url": ""
            },
            "contactPointType": "2",
            "lastUpdated": {
                "updatedAt": "2020-05-29T08:05:18.480",
                "updatedBy": "8-SMHA"
            },
            "phoneNumbers": {
                "telephone1": "",
                "telephone2": "",
                "telephone3": "",
                "telephone4": "",
                "telephone5": "",
                "telephone6": "",
                "telephone7": ""
            },
            "sortOrder": 0
        },
        {
            "address": {
                "countryCode": "NO",
                "place": "OSLO",
                "postcode": "0001",
                "province": "",
                "streetAddress": "Bottveien 1"
            },
            "additionalContactInfo": {
                "contactPerson": "",
                "contactPosition": "",
                "eMail": "",
                "eMailCc": "",
                "gtin": "",
                "url": ""
            },
            "contactPointType": "3",
            "lastUpdated": {
                "updatedAt": "2019-06-17T13:37:21.167",
                "updatedBy": "R.PAKL"
            },
            "phoneNumbers": {
                "telephone1": "",
                "telephone2": "",
                "telephone3": "",
                "telephone4": "",
                "telephone5": "",
                "telephone6": "",
                "telephone7": ""
            },
            "sortOrder": 0
        }
    ],
    "customFieldGroups": {
        "foretterktrl": [
            {
                "rowId": 0,
                "type_fx": "VALUTA",
                "verdi_fx": "NOK",
                "forkontroll_fx": false,
                "etterkontroll_fx": false
            },
            {
                "rowId": 1,
                "type_fx": "ATTESTANT",
                "verdi_fx": "",
                "forkontroll_fx": false,
                "etterkontroll_fx": false
            },
            {
                "rowId": 2,
                "type_fx": "AVGIFTSKODE",
                "verdi_fx": "0",
                "forkontroll_fx": false,
                "etterkontroll_fx": false
            },
            {
                "rowId": 3,
                "type_fx": "BANKKONTO ENDRET",
                "verdi_fx": "",
                "forkontroll_fx": false,
                "etterkontroll_fx": false
            },
            {
                "rowId": 4,
                "type_fx": "BELØP OVERSKREDET",
                "verdi_fx": "",
                "forkontroll_fx": false,
                "etterkontroll_fx": false
            },
            {
                "rowId": 5,
                "type_fx": "BILAGSDATO ETTER GITT DAT",
                "verdi_fx": "",
                "forkontroll_fx": false,
                "etterkontroll_fx": false
            },
            {
                "rowId": 6,
                "type_fx": "BILAGSDATO FØR GITT DATO",
                "verdi_fx": "",
                "forkontroll_fx": false,
                "etterkontroll_fx": false
            },
            {
                "rowId": 7,
                "type_fx": "DIM 1",
                "verdi_fx": "2040",
                "forkontroll_fx": true,
                "etterkontroll_fx": false
            },
            {
                "rowId": 8,
                "type_fx": "DIM 2",
                "verdi_fx": "",
                "forkontroll_fx": false,
                "etterkontroll_fx": false
            },
            {
                "rowId": 9,
                "type_fx": "DIM 3",
                "verdi_fx": "",
                "forkontroll_fx": false,
                "etterkontroll_fx": false
            },
            {
                "rowId": 10,
                "type_fx": "DIM 4",
                "verdi_fx": "",
                "forkontroll_fx": false,
                "etterkontroll_fx": false
            },
            {
                "rowId": 11,
                "type_fx": "DIM 5",
                "verdi_fx": "",
                "forkontroll_fx": false,
                "etterkontroll_fx": false
            },
            {
                "rowId": 12,
                "type_fx": "DIM 6",
                "verdi_fx": "",
                "forkontroll_fx": false,
                "etterkontroll_fx": false
            },
            {
                "rowId": 13,
                "type_fx": "DIM 7",
                "verdi_fx": "",
                "forkontroll_fx": false,
                "etterkontroll_fx": false
            },
            {
                "rowId": 14,
                "type_fx": "FAKTURA HAR MVA",
                "verdi_fx": "",
                "forkontroll_fx": false,
                "etterkontroll_fx": false
            },
            {
                "rowId": 15,
                "type_fx": "FORFALLSD ETTER GITT DATO",
                "verdi_fx": "",
                "forkontroll_fx": false,
                "etterkontroll_fx": false
            },
            {
                "rowId": 16,
                "type_fx": "FORFALLSD FØR GITT DATO",
                "verdi_fx": "",
                "forkontroll_fx": false,
                "etterkontroll_fx": false
            },
            {
                "rowId": 17,
                "type_fx": "GODKJENNER",
                "verdi_fx": "",
                "forkontroll_fx": false,
                "etterkontroll_fx": false
            },
            {
                "rowId": 18,
                "type_fx": "KONTO",
                "verdi_fx": "1280",
                "forkontroll_fx": false,
                "etterkontroll_fx": true
            },
            {
                "rowId": 19,
                "type_fx": "KREDITNOTA",
                "verdi_fx": "",
                "forkontroll_fx": true,
                "etterkontroll_fx": true
            },
            {
                "rowId": 20,
                "type_fx": "LEVERANDØRGRUPPE",
                "verdi_fx": "",
                "forkontroll_fx": false,
                "etterkontroll_fx": false
            },
            {
                "rowId": 21,
                "type_fx": "LEVERANDØRNUMMER",
                "verdi_fx": "4797",
                "forkontroll_fx": false,
                "etterkontroll_fx": true
            },
            {
                "rowId": 22,
                "type_fx": "PERIODISERING",
                "verdi_fx": "",
                "forkontroll_fx": false,
                "etterkontroll_fx": true
            },
            {
                "rowId": 23,
                "type_fx": "PERIODISERINGSNØKKEL",
                "verdi_fx": "32",
                "forkontroll_fx": false,
                "etterkontroll_fx": false
            },
            {
                "rowId": 24,
                "type_fx": "SENSITIVE FAKTURA",
                "verdi_fx": "",
                "forkontroll_fx": false,
                "etterkontroll_fx": false
            },
            {
                "rowId": 25,
                "type_fx": "SPESIFIKK BRUKERKOMMENTAR",
                "verdi_fx": "",
                "forkontroll_fx": false,
                "etterkontroll_fx": false
            },
            {
                "rowId": 26,
                "type_fx": "STARTPERIODE",
                "verdi_fx": "",
                "forkontroll_fx": false,
                "etterkontroll_fx": false
            },
            {
                "rowId": 27,
                "type_fx": "STOPP ALLE",
                "verdi_fx": "",
                "forkontroll_fx": false,
                "etterkontroll_fx": false
            }
        ],
        "sapubw": [
            {
                "rowId": 0,
                "integration_tag_fx": "PERSONID",
                "sap_field_fx": "0000PERNR",
                "default_override_fx": "INT",
                "comments_fx": "Ansatt nummer, slette ledende nuller (integer)"
            },
            {
                "rowId": 1,
                "integration_tag_fx": "STATUS",
                "sap_field_fx": "",
                "default_override_fx": "N",
                "comments_fx": "Ansatt status"
            },
            {
                "rowId": 2,
                "integration_tag_fx": "NI-FIRSTNAME",
                "sap_field_fx": "0002VORNA",
                "default_override_fx": "",
                "comments_fx": "Ansatt fornavn"
            },
            {
                "rowId": 3,
                "integration_tag_fx": "NI-SURNAME",
                "sap_field_fx": "0002NACHN",
                "default_override_fx": "",
                "comments_fx": "Ansatt etternavn"
            },
            {
                "rowId": 4,
                "integration_tag_fx": "DATEFROM",
                "sap_field_fx": "9999BEGDA",
                "default_override_fx": "",
                "comments_fx": "Ansatt dato fra (tiltredelse)"
            },
            {
                "rowId": 5,
                "integration_tag_fx": "DATETO",
                "sap_field_fx": "9999ENDDA",
                "default_override_fx": "20991231",
                "comments_fx": "Ansatt dato til (fratredelse)"
            },
            {
                "rowId": 6,
                "integration_tag_fx": "SY-SAPCLIENT",
                "sap_field_fx": "",
                "default_override_fx": "9900",
                "comments_fx": "SAP klient kode"
            },
            {
                "rowId": 7,
                "integration_tag_fx": "RL-RELATIONID",
                "sap_field_fx": "",
                "default_override_fx": "C1;INT",
                "comments_fx": "Ansatt koststed, slette ledende nuller (integer)"
            },
            {
                "rowId": 8,
                "integration_tag_fx": "RL-RELATEDVALUE",
                "sap_field_fx": "C1;0001KOSTL",
                "default_override_fx": "",
                "comments_fx": "Ansatt koststed verdi"
            },
            {
                "rowId": 9,
                "integration_tag_fx": "RL-DATEFROM",
                "sap_field_fx": "C1;0001BEGDA",
                "default_override_fx": "",
                "comments_fx": "Ansatt koststed dato fra"
            },
            {
                "rowId": 10,
                "integration_tag_fx": "RL-DATETO",
                "sap_field_fx": "C1;0001ENDDA",
                "default_override_fx": "20991231",
                "comments_fx": "Ansatt koststed dato til"
            },
            {
                "rowId": 11,
                "integration_tag_fx": "CP-AD-POSTCODE",
                "sap_field_fx": "",
                "default_override_fx": "0000",
                "comments_fx": "Default verdi for postkode"
            },
            {
                "rowId": 12,
                "integration_tag_fx": "CP-AD-PLACE",
                "sap_field_fx": "",
                "default_override_fx": "FIKTIV - UTL MED NORSK KONTO",
                "comments_fx": "Default verdi for sted"
            },
            {
                "rowId": 13,
                "integration_tag_fx": "SY-FILENAME",
                "sap_field_fx": "",
                "default_override_fx": "*9900*",
                "comments_fx": "Filnavn verdi"
            },
            {
                "rowId": 14,
                "integration_tag_fx": "RL-RELATIONID",
                "sap_field_fx": "",
                "default_override_fx": "ZZ04;2000",
                "comments_fx": "Stillingskode, slette ledende 2000"
            },
            {
                "rowId": 15,
                "integration_tag_fx": "RL-RELATEDVALUE",
                "sap_field_fx": "ZZ04;0001STELL",
                "default_override_fx": "",
                "comments_fx": "Stillingskode verdi"
            },
            {
                "rowId": 16,
                "integration_tag_fx": "RL-DATEFROM",
                "sap_field_fx": "ZZ04;0001BEGDA",
                "default_override_fx": "",
                "comments_fx": "Stillingskode dato fra"
            },
            {
                "rowId": 17,
                "integration_tag_fx": "RL-DATETO",
                "sap_field_fx": "ZZ04;0001ENDDA",
                "default_override_fx": "20991231",
                "comments_fx": "Stillingskode dato til"
            },
            {
                "rowId": 18,
                "integration_tag_fx": "RL-RELATIONID",
                "sap_field_fx": "",
                "default_override_fx": "ZR05",
                "comments_fx": "Stillingskategori"
            },
            {
                "rowId": 19,
                "integration_tag_fx": "RL-RELATEDVALUE",
                "sap_field_fx": "ZR05;9999SOBID",
                "default_override_fx": "",
                "comments_fx": "Stillingskategori verdi"
            },
            {
                "rowId": 20,
                "integration_tag_fx": "RL-DATEFROM",
                "sap_field_fx": "ZR05;9999SOBID_BEGDA",
                "default_override_fx": "",
                "comments_fx": "Stillingskategori dato fra"
            },
            {
                "rowId": 21,
                "integration_tag_fx": "RL-DATETO",
                "sap_field_fx": "ZR05;9999SOBID_ENDDA",
                "default_override_fx": "20991231",
                "comments_fx": "Stillingskategori dato til"
            },
            {
                "rowId": 22,
                "integration_tag_fx": "RL-RELATIONID",
                "sap_field_fx": "",
                "default_override_fx": "ZR01",
                "comments_fx": "Ansattgruppe (MG)"
            },
            {
                "rowId": 23,
                "integration_tag_fx": "RL-RELATEDVALUE",
                "sap_field_fx": "ZR01;0001PERSG",
                "default_override_fx": "",
                "comments_fx": "Ansattgruppe verdi"
            },
            {
                "rowId": 24,
                "integration_tag_fx": "RL-DATEFROM",
                "sap_field_fx": "ZR01;0001BEGDA",
                "default_override_fx": "",
                "comments_fx": "Ansattgruppe dato fra"
            },
            {
                "rowId": 25,
                "integration_tag_fx": "RL-DATETO",
                "sap_field_fx": "ZR01;0001ENDDA",
                "default_override_fx": "20991231",
                "comments_fx": "Ansattgruppe dato til"
            },
            {
                "rowId": 26,
                "integration_tag_fx": "RL-RELATIONID",
                "sap_field_fx": "",
                "default_override_fx": "ZR02",
                "comments_fx": "Ansattundergruppe (MUG)"
            },
            {
                "rowId": 27,
                "integration_tag_fx": "RL-RELATEDVALUE",
                "sap_field_fx": "ZR02;0001PERSK",
                "default_override_fx": "",
                "comments_fx": "Ansattundergruppe verdi"
            },
            {
                "rowId": 28,
                "integration_tag_fx": "RL-DATEFROM",
                "sap_field_fx": "ZR02;0001BEGDA",
                "default_override_fx": "",
                "comments_fx": "Ansattundergruppe dato fra"
            },
            {
                "rowId": 29,
                "integration_tag_fx": "RL-DATETO",
                "sap_field_fx": "ZR02;0001ENDDA",
                "default_override_fx": "20991231",
                "comments_fx": "Ansattundergruppe dato til"
            },
            {
                "rowId": 30,
                "integration_tag_fx": "RL-RELATIONID",
                "sap_field_fx": "",
                "default_override_fx": "B2",
                "comments_fx": "Inntektskategori"
            },
            {
                "rowId": 31,
                "integration_tag_fx": "RL-RELATEDVALUE",
                "sap_field_fx": "B2;",
                "default_override_fx": "AD",
                "comments_fx": "Inntektskategori default verdi"
            },
            {
                "rowId": 32,
                "integration_tag_fx": "RL-DATEFROM",
                "sap_field_fx": "B2;9999BEGDA",
                "default_override_fx": "",
                "comments_fx": "Inntektskategori dato fra"
            },
            {
                "rowId": 33,
                "integration_tag_fx": "RL-DATETO",
                "sap_field_fx": "B2;9999ENDDA",
                "default_override_fx": "20991231",
                "comments_fx": "Inntektskategori dato til"
            },
            {
                "rowId": 34,
                "integration_tag_fx": "RL-RELATIONID",
                "sap_field_fx": "",
                "default_override_fx": "B3",
                "comments_fx": "Kostnadskategori"
            },
            {
                "rowId": 35,
                "integration_tag_fx": "RL-RELATEDVALUE",
                "sap_field_fx": "B3;",
                "default_override_fx": "AD",
                "comments_fx": "Kostnadskategori default verdi"
            },
            {
                "rowId": 36,
                "integration_tag_fx": "RL-DATEFROM",
                "sap_field_fx": "B3;9999BEGDA",
                "default_override_fx": "",
                "comments_fx": "Kostnadskategori dato fra"
            },
            {
                "rowId": 37,
                "integration_tag_fx": "RL-DATETO",
                "sap_field_fx": "B3;9999ENDDA",
                "default_override_fx": "20991231",
                "comments_fx": "Kostnadskategori dato til"
            },
            {
                "rowId": 38,
                "integration_tag_fx": "BIRTHDATE",
                "sap_field_fx": "0002GBDAT",
                "default_override_fx": "",
                "comments_fx": "Fødselsdato"
            },
            {
                "rowId": 39,
                "integration_tag_fx": "SY-LOGGCALLS",
                "sap_field_fx": "",
                "default_override_fx": "1",
                "comments_fx": "Systemlogging nivå, 1 logge alle innlesnings verdier"
            },
            {
                "rowId": 40,
                "integration_tag_fx": "SY-FILEPATH",
                "sap_field_fx": "",
                "default_override_fx": "",
                "comments_fx": "Eksportfil mappe"
            },
            {
                "rowId": 41,
                "integration_tag_fx": "PERSONNELTYPE",
                "sap_field_fx": "",
                "default_override_fx": "A",
                "comments_fx": "Default ansatt type"
            },
            {
                "rowId": 42,
                "integration_tag_fx": "PI-PAYMENTMETHOD",
                "sap_field_fx": "",
                "default_override_fx": "XX",
                "comments_fx": "Default payment type"
            },
            {
                "rowId": 43,
                "integration_tag_fx": "COMPANYID",
                "sap_field_fx": "",
                "default_override_fx": "72",
                "comments_fx": "Default klient kode"
            },
            {
                "rowId": 44,
                "integration_tag_fx": "PI-SUPPLIERGROUPID",
                "sap_field_fx": "",
                "default_override_fx": "99",
                "comments_fx": "Default leverandør gruppe"
            },
            {
                "rowId": 45,
                "integration_tag_fx": "PI-SUPPLIERID",
                "sap_field_fx": "",
                "default_override_fx": "999999",
                "comments_fx": "Default leverandør"
            },
            {
                "rowId": 46,
                "integration_tag_fx": "PARTTIMEPCT",
                "sap_field_fx": "",
                "default_override_fx": "100",
                "comments_fx": "Deltids %"
            },
            {
                "rowId": 47,
                "integration_tag_fx": "CP-AC-EMAIL",
                "sap_field_fx": "01050010USRID_LONG",
                "default_override_fx": "",
                "comments_fx": "Ansatt e-post adresse"
            },
            {
                "rowId": 48,
                "integration_tag_fx": "SY-ARCHIVE",
                "sap_field_fx": "",
                "default_override_fx": "F:\\AGRDATA\\AGRBOTT_TEST02\\Data Import\\temp_ressurs",
                "comments_fx": "Temp katalog for importerte filer i base test02"
            }
        ]
    },
    "relatedValues": []
}
