[
  {
    "attributeId": "C1",
    "attributeName": "KOSTSTED",
    "attributeValue": "20101030",
    "companyId": "72",
    "customValue": 0,
    "description": "ABC Util",
    "owner": "",
    "ownerAttributeId": "",
    "ownerAttributeName": "",
    "periodFrom": 201911,
    "periodTo": 209912,
    "status": "N",
    "lastUpdated": {
      "updatedAt": "2020-01-23T11:10:23.963",
      "updatedBy": "R.AMBE"
    }
  },
  {
    "attributeId": "C1",
    "attributeName": "KOSTSTED",
    "attributeValue": "14100000",
    "companyId": "72",
    "customValue": 0,
    "description": "Avdeling LOS",
    "owner": "",
    "ownerAttributeId": "",
    "ownerAttributeName": "",
    "periodFrom": 201901,
    "periodTo": 209912,
    "status": "N",
    "lastUpdated": {
      "updatedAt": "2020-08-22T13:51:05.000",
      "updatedBy": "8-SIWI"
    }
  },
  {
    "attributeId": "C1",
    "attributeName": "KOSTSTED",
    "attributeValue": "14400000",
    "companyId": "72",
    "customValue": 0,
    "description": "Brukernære tjenester",
    "owner": "",
    "ownerAttributeId": "",
    "ownerAttributeName": "",
    "periodFrom": 201901,
    "periodTo": 209912,
    "status": "N",
    "lastUpdated": {
      "updatedAt": "2020-08-22T13:54:52.807",
      "updatedBy": "8-SIWI"
    }
  }
]
