{
  "items": [
    {
      "periode": "202009",
      "batchId": "9001",
      "firma": "72",
      "voucherdate": "15.01.2021",
      "vouchertype": "HB",
      "exref": "user@feide.id"
    }
  ]
}

